<?xml version="1.0" encoding="UTF-8" standalone="no"?>
<!-- Created with Inkscape (http://www.inkscape.org/) -->

<svg
   xmlns:dc="http://purl.org/dc/elements/1.1/"
   xmlns:cc="http://creativecommons.org/ns#"
   xmlns:rdf="http://www.w3.org/1999/02/22-rdf-syntax-ns#"
   xmlns:svg="http://www.w3.org/2000/svg"
   xmlns="http://www.w3.org/2000/svg"
   xmlns:xlink="http://www.w3.org/1999/xlink"
   xmlns:sodipodi="http://sodipodi.sourceforge.net/DTD/sodipodi-0.dtd"
   xmlns:inkscape="http://www.inkscape.org/namespaces/inkscape"
   width="294.00595"
   height="294.00595"
   id="svg2"
   version="1.1"
   inkscape:version="0.48.1 r9760"
   sodipodi:docname="green.svg">
  <defs
     id="defs4">
    <linearGradient
       id="linearGradient3800">
      <stop
         id="stop3802"
         offset="0"
         style="stop-color:#ff3c3c;stop-opacity:1;" />
      <stop
         style="stop-color:#ae0000;stop-opacity:0.69753087;"
         offset="0.75864106"
         id="stop3804" />
      <stop
         id="stop3806"
         offset="1"
         style="stop-color:#ae0000;stop-opacity:0;" />
    </linearGradient>
    <linearGradient
       id="linearGradient3780">
      <stop
         style="stop-color:#ffffff;stop-opacity:0.88271606;"
         offset="0"
         id="stop3782" />
      <stop
         style="stop-color:#ffffff;stop-opacity:0.01960784;"
         offset="1"
         id="stop3784" />
    </linearGradient>
    <linearGradient
       id="linearGradient3757">
      <stop
         style="stop-color:#62ff62;stop-opacity:1;"
         offset="0"
         id="stop3759" />
      <stop
         id="stop3771"
         offset="0.75864106"
         style="stop-color:#00e600;stop-opacity:0.69753087;" />
      <stop
         style="stop-color:#5eff5e;stop-opacity:0;"
         offset="1"
         id="stop3761" />
    </linearGradient>
    <radialGradient
       inkscape:collect="always"
       xlink:href="#linearGradient3757"
       id="radialGradient3769"
       cx="435.82059"
       cy="210.55396"
       fx="435.82059"
       fy="210.55396"
       r="147.00298"
       gradientUnits="userSpaceOnUse"
       gradientTransform="matrix(0.94578716,0,0,0.97901979,23.62707,4.4174654)" />
    <linearGradient
       inkscape:collect="always"
       xlink:href="#linearGradient3780"
       id="linearGradient3786"
       x1="159.54147"
       y1="66.145149"
       x2="262.44357"
       y2="232.6044"
       gradientUnits="userSpaceOnUse" />
    <radialGradient
       inkscape:collect="always"
       xlink:href="#linearGradient3800"
       id="radialGradient3796"
       gradientUnits="userSpaceOnUse"
       gradientTransform="matrix(0.94578716,0,0,0.97901979,23.62707,4.4174654)"
       cx="435.82059"
       cy="210.55396"
       fx="435.82059"
       fy="210.55396"
       r="147.00298" />
    <linearGradient
       inkscape:collect="always"
       xlink:href="#linearGradient3780"
       id="linearGradient3798"
       gradientUnits="userSpaceOnUse"
       x1="159.54147"
       y1="66.145149"
       x2="262.44357"
       y2="232.6044" />
  </defs>
  <sodipodi:namedview
     id="base"
     pagecolor="#ffffff"
     bordercolor="#666666"
     borderopacity="1.0"
     inkscape:pageopacity="0.0"
     inkscape:pageshadow="2"
     inkscape:zoom="1.6354519"
     inkscape:cx="262.45362"
     inkscape:cy="180.86453"
     inkscape:document-units="px"
     inkscape:current-layer="layer1"
     showgrid="false"
     inkscape:window-width="1920"
     inkscape:window-height="1033"
     inkscape:window-x="0"
     inkscape:window-y="0"
     inkscape:window-maximized="1"
     fit-margin-top="0"
     fit-margin-left="0"
     fit-margin-right="0"
     fit-margin-bottom="0" />
  <metadata
     id="metadata7">
    <rdf:RDF>
      <cc:Work
         rdf:about="">
        <dc:format>image/svg+xml</dc:format>
        <dc:type
           rdf:resource="http://purl.org/dc/dcmitype/StillImage" />
        <dc:title />
      </cc:Work>
    </rdf:RDF>
  </metadata>
  <g
     inkscape:label="Capa 1"
     inkscape:groupmode="layer"
     id="layer1"
     transform="translate(-66.151342,-27.232597)">
    <g
       id="g3808">
      <path
         transform="translate(-222.66627,-36.318383)"
         d="m 582.82356,210.55396 c 0,81.1875 -65.81547,147.00297 -147.00297,147.00297 -81.1875,0 -147.00298,-65.81547 -147.00298,-147.00297 0,-81.18751 65.81548,-147.00298 147.00298,-147.00298 81.1875,0 147.00297,65.81547 147.00297,147.00298 z"
         sodipodi:ry="147.00298"
         sodipodi:rx="147.00298"
         sodipodi:cy="210.55396"
         sodipodi:cx="435.82059"
         id="path2985"
         style="fill:#008700;fill-opacity:1;fill-rule:evenodd;stroke:none"
         sodipodi:type="arc" />
      <path
         sodipodi:type="arc"
         style="fill:url(#radialGradient3769);fill-opacity:1;fill-rule:evenodd;stroke:none"
         id="path3755"
         sodipodi:cx="435.82059"
         sodipodi:cy="210.55396"
         sodipodi:rx="147.00298"
         sodipodi:ry="147.00298"
         d="m 582.82356,210.55396 c 0,81.1875 -65.81547,147.00297 -147.00297,147.00297 -81.1875,0 -147.00298,-65.81547 -147.00298,-147.00297 0,-81.18751 65.81548,-147.00298 147.00298,-147.00298 81.1875,0 147.00297,65.81547 147.00297,147.00298 z"
         transform="matrix(0.97352942,0,0,0.97352942,-211.12985,-30.744896)" />
      <path
         sodipodi:nodetypes="scscs"
         inkscape:connector-curvature="0"
         id="path3773"
         d="m 267.63189,174.23558 c 0.36428,44.1435 -26.62052,75.66329 -54.47758,100.30791 -24.23887,-25.50934 -54.25923,-65.66656 -54.47757,-100.30791 -0.23201,-36.8088 31.71784,-78.257473 54.47757,-100.307919 22.75974,21.185723 54.15594,61.330849 54.47758,100.307919 z"
         style="fill:#003000;fill-opacity:1;fill-rule:evenodd;stroke:none" />
      <path
         transform="matrix(1.0356435,0,0,0.88207552,4.9477594,-17.201384)"
         d="m 310.00335,154.7793 c 0,50.62279 -48.87767,91.66068 -109.17133,91.66068 -60.29367,0 -109.171337,-41.03789 -109.171337,-91.66068 0,-50.6228 48.877667,-91.660686 109.171337,-91.660686 60.29366,0 109.17133,41.037886 109.17133,91.660686 z"
         sodipodi:ry="91.660683"
         sodipodi:rx="109.17133"
         sodipodi:cy="154.7793"
         sodipodi:cx="200.83202"
         id="path3778"
         style="fill:url(#linearGradient3786);fill-opacity:1;stroke:none"
         sodipodi:type="arc" />
    </g>
  </g>
</svg>
